{
  "project_info": {
    "project_number": "522445333088",
    "project_id": "connexstudent-3e148"
  },
  "client": [
    {
      "client_info": {
        "mobilesdk_app_id": "1:522445333088:android:2100b3d655dce805",
        "android_client_info": {
          "package_name": "esolz.connexstudent"
        }
      },
      "oauth_client": [],
      "api_key": [
        {
          "current_key": "AIzaSyA6K8feBFMt19BLo7I57gNjeFnVS4p6lxU"
        }
      ],
      "services": {
        "analytics_service": {
          "status": 1
        },
        "appinvite_service": {
          "status": 1,
          "other_platform_oauth_client": []
        },
        "ads_service": {
          "status": 1
        }
      }
    }
  ],
  "configuration_version": "1"
}